PYO FRAP + / - glycerol
…
For all but one of the FRAPs shown here I used 250 time steps with 20x bleaching speed 4 (1 rep uses speed 3) with 128 px frame and a frame size of 350um using the 10x objective. Also note that the acquisitions here used 16bit colors, since the fluorescence with this excitation etc was weak. the 16bit gave obviously less noisy quantifications. Also note that because I used the two photon, the pinhole was much smaller (~5um) than with the 405nm laser (70um), which should affect the bleach and measured volume.

All of the czi files are on the external harddrive. The quantified mean fluor int from the bleach and reference ROIs was pasted with the file names into this google sheet.

Analysis

Overview

First let’s take a look at the data. These are raw intensity values - no normalization has been done yet.

df <- read_csv("06_10_19_PYO_FRAP_glycerol_data.csv")

df

## # A tibble: 2,250 x 14
##    img_num  time bleach_int ref_int filename condition agarose PYO  
##      <dbl> <dbl>      <dbl>   <dbl> <chr>    <chr>     <chr>   <chr>
##  1       1 0          5741.   5763. 1pctAg_… PBS       1pctAg  300u…
##  2       2 0.195      5698.   5764. 1pctAg_… PBS       1pctAg  300u…
##  3       3 0.375      5679.   5748. 1pctAg_… PBS       1pctAg  300u…
##  4       4 0.549      5677.   5759. 1pctAg_… PBS       1pctAg  300u…
##  5       5 0.746      5740.   5803. 1pctAg_… PBS       1pctAg  300u…
##  6       6 1.12       5688.   5785. 1pctAg_… PBS       1pctAg  300u…
##  7       7 1.31       5810.   5769. 1pctAg_… PBS       1pctAg  300u…
##  8       8 1.49       5651.   5810. 1pctAg_… PBS       1pctAg  300u…
##  9       9 1.67       5673.   5789. 1pctAg_… PBS       1pctAg  300u…
## 10      10 1.86       5646.   5750. 1pctAg_… PBS       1pctAg  300u…
## # … with 2,240 more rows, and 6 more variables: objective <chr>,
## #   excitation <chr>, resolution <chr>, bleach_rep <chr>,
## #   bleach_speed <chr>, id <dbl>
…
