PYO FRAP
…
Results

Ok let’s do this.

First, let’s read in the csv of the frap data. All of these scans were acquired in the same way, so they should be pretty comparable. In excel I already normalized the intensity values to the average baseline intensity (before bleach), so we already have the singly normalized data.

Here’s what the csv looks like.

df_single_norm <- read_csv("05_30_19_PYO_FRAP_data.csv") %>% 
    rename(single_norm_int = scaled)

df_single_norm

## # A tibble: 3,500 x 12
##    img_num  time intensity avg_baseline single_norm_int filename condition
##      <dbl> <dbl>     <dbl>        <dbl>           <dbl> <chr>    <chr>    
##  1       1 0         0.032         127.        0.000251 1percen… 1percent…
##  2       2 0.208   128.            127.        1.00     1percen… 1percent…
##  3       3 0.399   128.            127.        1.01     1percen… 1percent…
##  4       4 0.591   126.            127.        0.993    1percen… 1percent…
##  5       5 0.782   127.            127.        0.994    1percen… 1percent…
##  6       6 0.974   127.            127.        1.000    1percen… 1percent…
##  7       7 1.17    127.            127.        1.000    1percen… 1percent…
##  8       8 1.39    127.            127.        0.997    1percen… 1percent…
##  9       9 1.58    127.            127.        0.998    1percen… 1percent…
## 10      10 1.77    128.            127.        1.01     1percen… 1percent…
## # … with 3,490 more rows, and 5 more variables: PYO <chr>,
## #   objective <chr>, resolution <chr>, bleach <chr>, id <dbl>
…
