PYO FRAP glycerol 2
…
Also important to consider, I tried bleaching at 350nm with the two photon and at 405nm with the diode and neither worked better than 375. This means that we are bleaching and acquiring using the two photon laser, which has a very thin cross section - pinhole ~ 4um. Therefore, by bleaching a disc 100um wide and 4um thick, most of the fluorescence recovery will be coming from the top and bottom of the disc, not the edges (x-y). Therefore I think I need to think harder about how to estimate the vertical “nominal” and “effective” bleach radii in order to quantify accurately.

Results

I did try FRAP on the PCA gel (0% glycerol), but there was absolutely no detectable bleaching using the 405 or two photon lasers (350 - 400nm) or both. That data along with the initial tests etc is all in the google sheet. The dataset in this notebook is specifically for the PYO pads at different concentrations of glycerol.

Overview

Let’s read in the dataset.

df <- read_csv("06_13_19_PYO_FRAP_glycerols_data.csv")

df

## # A tibble: 10,850 x 14
##    img_num  time bleach_int ref_int filename condition agarose PYO  
##      <dbl> <dbl>      <dbl>   <dbl> <chr>    <chr>     <chr>   <chr>
##  1       1 0          3283.   3299. 0pctGly… 0pctGlyc  1pctAg  300u…
##  2       2 0.172      3172.   3221. 0pctGly… 0pctGlyc  1pctAg  300u…
##  3       3 0.524      3234.   3134. 0pctGly… 0pctGlyc  1pctAg  300u…
##  4       4 0.712      3160.   3154. 0pctGly… 0pctGlyc  1pctAg  300u…
##  5       5 0.895      3153.   3213. 0pctGly… 0pctGlyc  1pctAg  300u…
##  6       6 1.08       3205.   3093. 0pctGly… 0pctGlyc  1pctAg  300u…
##  7       7 1.26       3141.   3284. 0pctGly… 0pctGlyc  1pctAg  300u…
##  8       8 1.44       3142.   3150. 0pctGly… 0pctGlyc  1pctAg  300u…
##  9       9 1.61       2960.   3193. 0pctGly… 0pctGlyc  1pctAg  300u…
## 10      10 1.79       3157.   3066. 0pctGly… 0pctGlyc  1pctAg  300u…
## # … with 10,840 more rows, and 6 more variables: objective <chr>,
## #   frames <chr>, excitation <chr>, bleach <chr>, fast <chr>, id <dbl>
…
